module github.com/eclipse-kanto/suite-connector

go 1.17

require (
	github.com/Jeffail/gabs/v2 v2.6.0
	github.com/ThreeDotsLabs/watermill v1.1.1
	github.com/cenkalti/backoff/v3 v3.0.0
	github.com/eclipse/ditto-clients-golang v0.0.0-20220225085802-cf3b306280d3
	github.com/eclipse/paho.mqtt.golang v1.4.1
	github.com/fsnotify/fsnotify v1.5.1
	github.com/google/go-tpm v0.3.2
	github.com/google/uuid v1.1.1
	github.com/hashicorp/go-multierror v1.0.0
	github.com/imdario/mergo v0.3.12
	github.com/pkg/errors v0.9.1
	github.com/stretchr/testify v1.7.0
	github.com/tevino/abool/v2 v2.0.1
	go.uber.org/goleak v1.1.10
	golang.org/x/net v0.0.0-20210405180319-a5a99cb37ef4
	golang.org/x/time v0.0.0-20190308202827-9d24e82272b4
	gopkg.in/natefinch/lumberjack.v2 v2.0.0
)

require (
	github.com/davecgh/go-spew v1.1.1 // indirect
	github.com/gorilla/websocket v1.4.2 // indirect
	github.com/hashicorp/errwrap v1.0.0 // indirect
	github.com/lithammer/shortuuid/v3 v3.0.4 // indirect
	github.com/oklog/ulid v1.3.1 // indirect
	github.com/pmezard/go-difflib v1.0.0 // indirect
	github.com/stretchr/objx v0.1.1 // indirect
	golang.org/x/lint v0.0.0-20190930215403-16217165b5de // indirect
	golang.org/x/sync v0.0.0-20210220032951-036812b2e83c // indirect
	golang.org/x/sys v0.0.0-20210630005230-0f9fa26af87c // indirect
	golang.org/x/tools v0.1.1 // indirect
	gopkg.in/yaml.v3 v3.0.0-20200313102051-9f266ea9e77c // indirect
)
